lab01/chisel-design-for-student/test_run_dir/md5_should_do_right_thing/md5.vcd
$date
2022-09-24T16:57+0000
$end
$version
0.2
$end
$comment

$end
$timescale 1ns  $end
$scope module md5 $end
 $var wire 32 ! A_K_50 $end
 $var wire 32 " A_K_52 $end
 $var wire 32 # A_K_51 $end
 $var wire 32 $ A_K_54 $end
 $var wire 32 % A_K_53 $end
 $var wire 32 & A_K_56 $end
 $var wire 32 ' A_K_55 $end
 $var wire 32 ( A_K_58 $end
 $var wire 32 ) A_K_57 $end
 $var wire 32 * A_K_59 $end
 $var wire 32 + AA $end
 $var wire 32 , A_K_61 $end
 $var wire 32 - A_K_60 $end
 $var wire 32 . A_K_63 $end
 $var wire 32 / A_K_62 $end
 $var wire 32 0 BB $end
 $var wire 32 1 A $end
 $var wire 32 2 B $end
 $var wire 32 3 C $end
 $var wire 32 4 D $end
 $var wire 32 5 A_K_30 $end
 $var wire 32 6 A_K_39 $end
 $var wire 32 7 A_K_32 $end
 $var wire 32 8 A_K_31 $end
 $var wire 32 9 A_K_34 $end
 $var wire 32 : A_K_33 $end
 $var wire 32 ; A_K_36 $end
 $var wire 32 < A_K_35 $end
 $var wire 32 = A_K_38 $end
 $var wire 32 > A_K_37 $end
 $var wire 32 ? CC $end
 $var wire 32 @ A_K_41 $end
 $var wire 32 A A_K_40 $end
 $var wire 32 B A_K_43 $end
 $var wire 32 C A_K_42 $end
 $var wire 32 D A_K_45 $end
 $var wire 32 E A_K_44 $end
 $var wire 32 F A_K_47 $end
 $var wire 32 G A_K_46 $end
 $var wire 32 H A_K_49 $end
 $var wire 32 I A_K_48 $end
 $var wire 32 J DD $end
 $var wire 1 K io_out_valid $end
 $var wire 1 L io_in_valid $end
 $var wire 1 M md5Round $end
 $var wire 8 N next_state $end
 $var wire 32 O Anext $end
 $var wire 1 P out_r $end
 $var wire 1 Q clock $end
 $var wire 128 R io_out $end
 $var wire 32 S Bnext $end
 $var wire 8 \ state $end
 $var wire 32 ^ Cnext $end
 $var wire 1 _ io_ready $end
 $var wire 32 ` cya $end
 $var wire 32 a cyc $end
 $var wire 32 b cyb $end
 $var wire 32 c cyd $end
 $var wire 32 d Dnext $end
 $var wire 1 e printf $end
 $var wire 256 g msg_hi $end
 $var wire 4 h phase $end
 $var wire 128 i io_in $end
 $var wire 1 j reset $end
 $var wire 512 k msg $end
 $var wire 32 l A_K_2 $end
 $var wire 32 m A_K_3 $end
 $var wire 32 n A_K_4 $end
 $var wire 32 o A_K_5 $end
 $var wire 256 p msg_lo $end
 $var wire 32 q A_K_6 $end
 $var wire 32 r A_K_7 $end
 $var wire 32 s A_K_8 $end
 $var wire 32 t A_K_9 $end
 $var wire 32 u A_K_18 $end
 $var wire 32 v A_K_17 $end
 $var wire 32 w A_K_19 $end
 $var wire 32 x A_K_10 $end
 $var wire 32 y A_K_12 $end
 $var wire 32 z A_K_11 $end
 $var wire 32 { A_K_14 $end
 $var wire 32 | A_K_13 $end
 $var wire 32 } A_K_16 $end
 $var wire 32 ~ A_K_15 $end
 $var wire 32 "! A_K_29 $end
 $var wire 32 "" A_K_28 $end
 $var wire 32 "# A_K_21 $end
 $var wire 32 "$ A_K_20 $end
 $var wire 32 "% A_K_23 $end
 $var wire 32 "& A_K_22 $end
 $var wire 32 "' A_K_25 $end
 $var wire 32 "( A_K_24 $end
 $var wire 32 ") A_K_27 $end
 $var wire 32 "* A_K_26 $end
 $var wire 32 "+ A_A $end
 $var wire 32 ", A_B $end
 $var wire 32 "- A_C $end
 $var wire 32 ". A_D $end
 $var wire 32 "/ A_K_0 $end
 $var wire 32 "0 A_K_1 $end
  $scope module md5Round $end
   $var wire 32 T io_c $end
   $var wire 32 U io_d $end
   $var wire 32 V io_a $end
   $var wire 32 W io_b $end
   $var wire 5 X io_s $end
   $var wire 32 Y io_t $end
   $var wire 2 Z io_r $end
   $var wire 32 [ io_m $end
   $var wire 32 ] res $end
   $var wire 32 f io_next_a $end
  $upscope $end
$upscope $end
$enddefinitions $end
$dumpvars
b00000000000000000000000000000000 "/
b00000000000000000000000000000000 +
b00000000000000000000000000000000 ".
b00000000000000000000000000000000 *
b00000000000000000000000000000000 "-
b00000000000000000000000000000000 -
b00000000000000000000000000000000 ",
b00000000000000000000000000000000 ,
b00000000000000000000000000000000 '
b00000000000000000000000000000000 &
b00000000000000000000000000000000 )
b00000000000000000000000000000000 "0
b00000000000000000000000000000000 (
b00000000000000000000000000000000 "'
b00000000000000000000000000000000 #
b00000000000000000000000000000000 "&
b00000000000000000000000000000000 "
b00000000000000000000000000000000 "%
b00000000000000000000000000000000 %
b00000000000000000000000000000000 "$
b00000000000000000000000000000000 $
b00000000000000000000000000000000 "+
b00000000000000000000000000000000 "*
b00000000000000000000000000000000 ")
b00000000000000000000000000000000 !
b00000000000000000000000000000000 "(
b00000000000000000000000000000000 ;
b00000000000000000000000000000000 :
b00000000000000000000000000000000 =
b00000000000000000000000000000000 <
b00000000000000000000000000000000 7
b00000000000000000000000000000000 6
b00000000000000000000000000000000 9
b00000000000000000000000000000000 8
b00000000000000000000000000000000 3
b00000000000000000000000000000000 2
b00000000000000000000000000000000 5
0K
b00000000000000000000000000000000 4
0L
b00000000000000000000000000000000 /
0M
b00000000000000000000000000000000 .
b00000000000000000000000000000000 1
b00000000000000000000000000000000 0
0P
0Q
0_
b00000000 \
0e
0j
b00000000 N
b00000000000000000000000000000000000000000000000000000000000000000000000000000000000000000000000000000000000000000000000000000000 i
b00000000000000000000000000000000000000000000000000000000000000000000000000000000000000000000000000000000000000000000000000000000 R
b00000000000000000000000000000000 "#
b00000000000000000000000000000000 ""
b00000000000000000000000000000000 "!
b00000000000000000000000000000000 ~
b00000000000000000000000000000000 m
b00000000000000000000000000000000 l
b00000000000000000000000000000000 f
b00000 X
b00000000000000000000000000000000 c
b00000000000000000000000000000000 b
b00000000000000000000000000000000 d
b0000000000000000000000000000000000000000000000000000000000000000000000000000000000000000000000000000000000000000000000000000000000000000000000000000000000000000000000000000000000000000000000000000000000000000000000000000000000000000000000000000000000000000 g
b00000000000000000000000000000000 ^
b00000000000000000000000000000000 a
b00000000000000000000000000000000 `
b00000000000000000000000000000000 {
b00000000000000000000000000000000 z
b00000000000000000000000000000000 }
b00000000000000000000000000000000 |
b00000000000000000000000000000000 w
b00000000000000000000000000000000 v
b0000000000000000000000000000000000000000000000000000000000000000000000000000000000000000000000000000000000000000000000000000000000000000000000000000000000000000000000000000000000000000000000000000000000000000000000000000000000000000000000000000000000000000 p
b00000000000000000000000000000000 y
b00000000000000000000000000000000 x
b00000000000000000000000000000000 s
b00000000000000000000000000000000 r
b00000000000000000000000000000000 u
b00000000000000000000000000000000 t
b00000000000000000000000000000000 o
b00000000000000000000000000000000 n
b00000000000000000000000000000000 q
b00000000000000000000000000000000 J
b00000000000000000000000000000000 G
b00000000000000000000000000000000 F
b00000000000000000000000000000000 I
b00 Z
b00000000000000000000000000000000 H
b00000000000000000000000000000000 C
b00000000000000000000000000000000 B
b00000000000000000000000000000000 E
b00000000000000000000000000000000000000000000000000000000000000000000000000000000000000000000000000000000000000000000000000000000000000000000000000000000000000000000000000000000000000000000000000000000000000000000000000000000000000000000000000000000000000000000000000000000000000000000000000000000000000000000000000000000000000000000000000000000000000000000000000000000000000000000000000000000000000000000000000000000000000000000000000000000000000000000000000000000000000000000000000000000000000000000000000000000 k
b00000000000000000000000000000000 D
b0000 h
b00000000000000000000000000000000 ?
b00000000000000000000000000000000 >
b00000000000000000000000000000000 A
b00000000000000000000000000000000 @
b00000000000000000000000000000000 [
b00000000000000000000000000000000 ]
b00000000000000000000000000000000 W
b00000000000000000000000000000000 V
b00000000000000000000000000000000 Y
b00000000000000000000000000000000 S
b00000000000000000000000000000000 U
b00000000000000000000000000000000 T
b00000000000000000000000000000000 O
$end
#0
b10101011100101000010001110100111 !
b01100101010110110101100111000011 "
b11111100100100111010000000111001 #
b11111111111011111111010001111101 $
b10001111000011001100110010010010 %
b01101111101010000111111001001111 &
b10000101100001000101110111010001 '
b10100011000000010100001100010100 (
b11111110001011001110011011100000 )
b01001110000010000001000110100001 *
b10111101001110101111001000110101 ,
b11110111010100110111111010000010 -
b11101011100001101101001110010001 .
b00101010110101111101001010111011 /
b01100111011011110000001011011001 5
b10111110101111111011110001110000 6
b11111111111110100011100101000010 7
b10001101001010100100110010001010 8
b01101101100111010110000100100010 9
b10000111011100011111011010000001 :
b10100100101111101110101001000100 ;
b11111101111001010011100000001100 <
b11110110101110110100101101100000 =
b01001011110111101100111110101001 >
b11111100111011111010001111111000 "!
b11101010101000010010011111111010 @
b10101001111000111110100100000101 ""
b00101000100110110111111011000110 A
b00000010010001000001010001010011 "#
b00000100100010000001110100000101 B
b11010110001011110001000001011101 "$
b11010100111011110011000010000101 C
b11100111110100111111101111001000 "%
b11100110110110111001100111100101 D
b11011000101000011110011010000001 "&
b11011001110101001101000000111001 E
b11000011001101110000011111010110 "'
b11000100101011000101011001100101 F
b00100001111000011100110111100110 "(
b00011111101000100111110011111000 G
b01000101010110100001010011101101 ")
b01000011001010101111111110010111 H
b11110100110101010000110110000111 "*
b11110100001010010010001001000100 I
b01100111010001010010001100000001 "+
b11101111110011011010101110001001 ",
b10011000101110101101110011111110 "-
b00010000001100100101010001110110 ".
b11010111011010101010010001111000 "/
b11101000110001111011011101010110 "0
1j
b00100100001000000111000011011011 l
b11000001101111011100111011101110 m
b11110101011111000000111110101111 n
b01000111100001111100011000101010 o
b10101000001100000100011000010011 q
b11111101010001101001010100000001 r
b01101001100000001001100011011000 s
b10001011010001001111011110101111 t
b00100110010111100101101001010001 u
b11000000010000001011001101000000 v
b11101001101101101100011110101010 w
b11111111111111110101101110110001 x
b01101011100100000001000100100010 y
b10001001010111001101011110111110 z
b10100110011110010100001110001110 {
b11111101100110000111000110010011 |
b11110110000111100010010101100010 }
b01001001101101000000100000100001 ~
#1
b01100111010001010010001100000001 `
b10011000101110101101110011111110 a
b11101111110011011010101110001001 b
b00010000001100100101010001110110 c
b00010000001100100101010001110110 d
b00000001 N
b01100111010001010010001100000001 O
b01100111010001010010001100000001 1
1Q
b11101111110011011010101110001001 2
b01100111010001010010001100000001111011111100110110101011100010011001100010111010110111001111111000010000001100100101010001110110 R
b10011000101110101101110011111110 3
b11101111110011011010101110001001 S
b00010000001100100101010001110110 4
b00000001 \
b10011000101110101101110011111110 ^
1_
#6
b0000000000000000000000000000000000000000000000000000000000000000000000000000000000000000000000000000000000000000000000000011010100000000000000000000000000000000000000000000000000000000000000000000000000000000000000000000000000000000000000000000000000110101 p
0Q
b0000000000000000000000000000000000000000000000000000000000000000000000000000000000000000000000000000000000000000000000000011010100000000000000000000000000000000000000000000000000000000000000000000000000000000000000000000000000000000000000000000000000110101 g
b00000000000000000000000000000000000000000000000000000000000000000000000000000000000000000000000000000000000000000000000000110101 i
0j
1L
b00000010 N
#11
b10100101001000000000000111110100 f
b00010000001100100101010001110110 J
b01100111010001010010001100000001 +
b00000000000000000000000000000000000000000000000000000000000000000000000000000000000000000000000000000000000000000000000000110101000000000000000000000000000000000000000000000000000000000000000000000000000000000000000000000000000000000000000000000000001101010000000000000000000000000000000000000000000000000000000000000000000000000000000000000000000000000000000000000000000000000011010100000000000000000000000000000000000000000000000000000000000000000000000000000000000000000000000000000000000000000000000000110101 k
b10100101001000000000000111110100 O
b11101111110011011010101110001001 0
1Q
b10011000101110101101110011111110 T
b00010000001100100101010001110110 U
b01100111010001010010001100000001 V
b11101111110011011010101110001001 W
b00111 X
b11010111011010101010010001111000 Y
b00000000000000000000000000110101 [
b00000010 \
b11010111011010101010010010101100 ]
b10011000101110101101110011111110 ?
0_
#16
0Q
#21
b00010000001100100101010001110110 `
b11101111110011011010101110001001 a
b10100101001000000000000111110100 b
b10011000101110101101110011111110 c
b11110011101101010110110101011101 d
b11110011101101010110110101011101 f
b0001 h
b10100101001000000000000111110100 1
1Q
b10100101001000000000000111110100111011111100110110101011100010011001100010111010110111001111111000010000001100100101010001110110 R
b11101111110011011010101110001001 T
b10011000101110101101110011111110 U
b00010000001100100101010001110110 V
b10100101001000000000000111110100 W
b01100 X
b11101000110001111011011101010110 Y
b00000000000000000000000000000000 [
b10110110100101001110100101010110 ]
#26
0Q
#31
b10011000101110101101110011111110 `
b10100101001000000000000111110100 a
b11110011101101010110110101011101 b
b11101111110011011010101110001001 c
b10010111000100000100000111100100 f
b0010 h
1Q
b10100101001000000000000111110100111011111100110110101011100010011001100010111010110111001111111011110011101101010110110101011101 R
b11110011101101010110110101011101 4
b10100101001000000000000111110100 T
b11101111110011011010101110001001 U
b10011000101110101101110011111110 V
b11110011101101010110110101011101 W
b10001 X
b00100100001000000111000011011011 Y
b01101010010000111101000110101101 ]
b10010111000100000100000111100100 ^
#36
0Q
#41
b11101111110011011010101110001001 `
b11110011101101010110110101011101 a
b10010111000100000100000111100100 b
b10100101001000000000000111110100 c
b10001001111010010111000011010010 f
b0011 h
1Q
b10100101001000000000000111110100111011111100110110101011100010011001011100010000010000011110010011110011101101010110110101011101 R
b10010111000100000100000111100100 3
b10001001111010010111000011010010 S
b11110011101101010110110101011101 T
b10100101001000000000000111110100 U
b11101111110011011010101110001001 V
b10010111000100000100000111100100 W
b10110 X
b11000001101111011100111011101110 Y
b01100100101110111011101111001011 ]
#46
0Q
#51
b10100101001000000000000111110100 `
b10010111000100000100000111100100 a
b10001001111010010111000011010010 b
b11110011101101010110110101011101 c
b01100010000110010100001110011000 f
b0100 h
b01100010000110010100001110011000 O
1Q
b10001001111010010111000011010010 2
b10100101001000000000000111110100100010011110100101110000110100101001011100010000010000011110010011110011101101010110110101011101 R
b10010111000100000100000111100100 T
b11110011101101010110110101011101 U
b10100101001000000000000111110100 V
b10001001111010010111000011010010 W
b00111 X
b11110101011111000000111110101111 Y
b00000000000000000000000000110101 [
b10001101101100000101111110100101 ]
#56
0Q
#61
b11110011101101010110110101011101 `
b10001001111010010111000011010010 a
b01100010000110010100001110011000 b
b10010111000100000100000111100100 c
b11001001011000010000000010011100 d
b11001001011000010000000010011100 f
b0101 h
b01100010000110010100001110011000 1
1Q
b01100010000110010100001110011000100010011110100101110000110100101001011100010000010000011110010011110011101101010110110101011101 R
b10001001111010010111000011010010 T
b10010111000100000100000111100100 U
b11110011101101010110110101011101 V
b01100010000110010100001110011000 W
b01100 X
b01000111100001111100011000101010 Y
b00000000000000000000000000000000 [
b11010000010001100111010001111011 ]
#66
0Q
#71
b10010111000100000100000111100100 `
b01100010000110010100001110011000 a
b11001001011000010000000010011100 b
b10001001111010010111000011010010 c
b10111011000001000000000000101111 f
b0110 h
1Q
b01100010000110010100001110011000100010011110100101110000110100101001011100010000010000011110010011001001011000010000000010011100 R
b11001001011000010000000010011100 4
b01100010000110010100001110011000 T
b10001001111010010111000011010010 U
b10010111000100000100000111100100 V
b11001001011000010000000010011100 W
b10001 X
b10101000001100000100011000010011 Y
b01111111110010011111100011010001 ]
b10111011000001000000000000101111 ^
#76
0Q
#81
b10001001111010010111000011010010 `
b11001001011000010000000010011100 a
b10111011000001000000000000101111 b
b01100010000110010100001110011000 c
b00010110110110000001001010000001 f
b0111 h
1Q
b01100010000110010100001110011000100010011110100101110000110100101011101100000100000000000010111111001001011000010000000010011100 R
b10111011000001000000000000101111 3
b00010110110110000001001010000001 S
b11001001011000010000000010011100 T
b01100010000110010100001110011000 U
b10001001111010010111000011010010 V
b10111011000001000000000000101111 W
b10110 X
b11111101010001101001010100000001 Y
b01010000010010010100100101101111 ]
#86
0Q
#91
b01100010000110010100001110011000 `
b10111011000001000000000000101111 a
b00010110110110000001001010000001 b
b11001001011000010000000010011100 c
b01110100010001100111001111010100 f
b1000 h
b01110100010001100111001111010100 O
1Q
b00010110110110000001001010000001 2
b01100010000110010100001110011000000101101101100000010010100000011011101100000100000000000010111111001001011000010000000010011100 R
b10111011000001000000000000101111 T
b11001001011000010000000010011100 U
b01100010000110010100001110011000 V
b00010110110110000001001010000001 W
b00111 X
b01101001100000001001100011011000 Y
b00000000000000000000000000110101 [
b10100110101110101101110011000010 ]
#96
0Q
#101
b11001001011000010000000010011100 `
b00010110110110000001001010000001 a
b01110100010001100111001111010100 b
b10111011000001000000000000101111 c
b11010100111101011110001100010010 d
b11010100111101011110001100010010 f
b1001 h
b01110100010001100111001111010100 1
1Q
b01110100010001100111001111010100000101101101100000010010100000011011101100000100000000000010111111001001011000010000000010011100 R
b00010110110110000001001010000001 T
b10111011000001000000000000101111 U
b11001001011000010000000010011100 V
b01110100010001100111001111010100 W
b01100 X
b10001011010001001111011110101111 Y
b00000000000000000000000000000000 [
b11110011111001100000101011110110 ]
#106
0Q
#111
b10111011000001000000000000101111 `
b01110100010001100111001111010100 a
b11010100111101011110001100010010 b
b00010110110110000001001010000001 c
b01110011110110000000010110110001 f
b1010 h
1Q
b01110100010001100111001111010100000101101101100000010010100000011011101100000100000000000010111111010100111101011110001100010010 R
b11010100111101011110001100010010 4
b01110100010001100111001111010100 T
b00010110110110000001001010000001 U
b10111011000001000000000000101111 V
b11010100111101011110001100010010 W
b10001 X
b11111111111111110101101110110001 Y
b00010001010011111100111101110001 ]
b01110011110110000000010110110001 ^
#116
0Q
#121
b00010110110110000001001010000001 `
b11010100111101011110001100010010 a
b01110011110110000000010110110001 b
b01110100010001100111001111010100 c
b11011000110101010100100010001000 f
b1011 h
1Q
b01110100010001100111001111010100000101101101100000010010100000010111001111011000000001011011000111010100111101011110001100010010 R
b01110011110110000000010110110001 3
b11011000110101010100100010001000 S
b11010100111101011110001100010010 T
b01110100010001100111001111010100 U
b00010110110110000001001010000001 V
b01110011110110000000010110110001 W
b10110 X
b10001001010111001101011110111110 Y
b11110101000010110101110110010011 ]
#126
0Q
#131
b01110100010001100111001111010100 `
b01110011110110000000010110110001 a
b11011000110101010100100010001000 b
b11010100111101011110001100010010 c
b00111100011010011010011100100010 f
b1100 h
b00111100011010011010011100100010 O
1Q
b11011000110101010100100010001000 2
b01110100010001100111001111010100110110001101010101001000100010000111001111011000000001011011000111010100111101011110001100010010 R
b01110011110110000000010110110001 T
b11010100111101011110001100010010 U
b01110100010001100111001111010100 V
b11011000110101010100100010001000 W
b00111 X
b01101011100100000001000100100010 Y
b00000000000000000000000000110101 [
b00110100110001110010100010111101 ]
#136
0Q
#141
b11010100111101011110001100010010 `
b11011000110101010100100010001000 a
b00111100011010011010011100100010 b
b01110011110110000000010110110001 c
b00110001101111010000101000000111 d
b00110001101111010000101000000111 f
b1101 h
b00111100011010011010011100100010 1
1Q
b00111100011010011010011100100010110110001101010101001000100010000111001111011000000001011011000111010100111101011110001100010010 R
b11011000110101010100100010001000 T
b01110011110110000000010110110001 U
b11010100111101011110001100010010 V
b00111100011010011010011100100010 W
b01100 X
b11111101100110000111000110010011 Y
b00000000000000000000000000000000 [
b00101110010111110101010100110110 ]
#146
0Q
#151
b01110011110110000000010110110001 `
b00111100011010011010011100100010 a
b00110001101111010000101000000111 b
b11011000110101010100100010001000 c
b01001001010011110010111101111100 f
b1110 h
1Q
b00111100011010011010011100100010110110001101010101001000100010000111001111011000000001011011000100110001101111010000101000000111 R
b00110001101111010000101000000111 4
b00111100011010011010011100100010 T
b11011000110101010100100010001000 U
b01110011110110000000010110110001 V
b00110001101111010000101000000111 W
b10001 X
b10100110011110010100001110001110 Y
b00010010101110101000101111001001 ]
b01001001010011110010111101111100 ^
#156
0Q
#161
b11011000110101010100100010001000 `
b00110001101111010000101000000111 a
b01001001010011110010111101111100 b
b00111100011010011010011100100010 c
b11110101001001010001110100110010 f
b1111 h
b00000100 N
1Q
b00111100011010011010011100100010110110001101010101001000100010000100100101001111001011110111110000110001101111010000101000000111 R
b01001001010011110010111101111100 3
b11110101001001010001110100110010 S
b00110001101111010000101000000111 T
b00111100011010011010011100100010 U
b11011000110101010100100010001000 V
b01001001010011110010111101111100 W
b10110 X
b01001001101101000000100000100001 Y
b01010111101101101101101010101111 ]
#166
0Q
#171
b00111100011010011010011100100010 `
b01001001010011110010111101111100 a
b11110101001001010001110100110010 b
b00110001101111010000101000000111 c
b01110011000001000110001110100111 f
b0000 h
b01110011000001000110001110100111 O
1Q
b11110101001001010001110100110010 2
b00111100011010011010011100100010111101010010010100011101001100100100100101001111001011110111110000110001101111010000101000000111 R
b01001001010011110010111101111100 T
b00110001101111010000101000000111 U
b00111100011010011010011100100010 V
b11110101001001010001110100110010 W
b00101 X
b11110110000111100010010101100010 Y
b01 Z
b00000000000000000000000000110101 [
b00000100 \
b10101011111011101111101000110011 ]
#176
0Q
#181
b00110001101111010000101000000111 `
b11110101001001010001110100110010 a
b01110011000001000110001110100111 b
b01001001010011110010111101111100 c
b10110110111001011010100101110101 d
b10110110111001011010100101110101 f
b0001 h
b01110011000001000110001110100111 1
1Q
b01110011000001000110001110100111111101010010010100011101001100100100100101001111001011110111110000110001101111010000101000000111 R
b11110101001001010001110100110010 T
b01001001010011110010111101111100 U
b00110001101111010000101000000111 V
b01110011000001000110001110100111 W
b01001 X
b11000000010000001011001101000000 Y
b11100111001000011111000010100010 ]
#186
0Q
#191
b01001001010011110010111101111100 `
b01110011000001000110001110100111 a
b10110110111001011010100101110101 b
b11110101001001010001110100110010 c
b01110100010001100011001011101001 f
b0010 h
1Q
b01110011000001000110001110100111111101010010010100011101001100100100100101001111001011110111110010110110111001011010100101110101 R
b10110110111001011010100101110101 4
b01110011000001000110001110100111 T
b11110101001001010001110100110010 U
b01001001010011110010111101111100 V
b10110110111001011010100101110101 W
b01110 X
b00100110010111100101101001010001 Y
b00000000000000000000000000000000 [
b00100101110100101111010110000010 ]
b01110100010001100011001011101001 ^
#196
0Q
#201
b11110101001001010001110100110010 `
b10110110111001011010100101110101 a
b01110100010001100011001011101001 b
b01110011000001000110001110100111 c
b01110001001000110110111100000001 f
b0011 h
1Q
b01110011000001000110001110100111111101010010010100011101001100100111010001000110001100101110100110110110111001011010100101110101 R
b01110100010001100011001011101001 3
b01110001001000110110111100000001 S
b10110110111001011010100101110101 T
b01110011000001000110001110100111 U
b11110101001001010001110100110010 V
b01110100010001100011001011101001 W
b10100 X
b11101001101101101100011110101010 Y
b11010011110000011000111111001101 ]
#206
0Q
#211
b01110011000001000110001110100111 `
b01110100010001100011001011101001 a
b01110001001000110110111100000001 b
b10110110111001011010100101110101 c
b10011011111110010110000010111000 f
b0100 h
b10011011111110010110000010111000 O
1Q
b01110001001000110110111100000001 2
b01110011000001000110001110100111011100010010001101101111000000010111010001000110001100101110100110110110111001011010100101110101 R
b01110100010001100011001011101001 T
b10110110111001011010100101110101 U
b01110011000001000110001110100111 V
b01110001001000110110111100000001 W
b00101 X
b11010110001011110001000001011101 Y
b10111001010101101010111110001101 ]
#216
0Q
#221
b10110110111001011010100101110101 `
b01110001001000110110111100000001 a
b10011011111110010110000010111000 b
b01110100010001100011001011101001 c
b10110010010100000100001001001101 d
b10110010010100000100001001001101 f
b0101 h
b10011011111110010110000010111000 1
1Q
b10011011111110010110000010111000011100010010001101101111000000010111010001000110001100101110100110110110111001011010100101110101 R
b01110001001000110110111100000001 T
b01110100010001100011001011101001 U
b10110110111001011010100101110101 V
b10011011111110010110000010111000 W
b01001 X
b00000010010001000001010001010011 Y
b11001010100010110010101101110000 ]
#226
0Q
#231
b01110100010001100011001011101001 `
b10011011111110010110000010111000 a
b10110010010100000100001001001101 b
b01110001001000110110111100000001 c
b11001001010110010000010000111101 f
b0110 h
1Q
b10011011111110010110000010111000011100010010001101101111000000010111010001000110001100101110100110110010010100000100001001001101 R
b10110010010100000100001001001101 4
b10011011111110010110000010111000 T
b01110001001000110110111100000001 U
b01110100010001100011001011101001 V
b10110010010100000100001001001101 W
b01110 X
b11011000101000011110011010000001 Y
b00000111110000000101110000100011 ]
b11001001010110010000010000111101 ^
#236
0Q
#241
b01110001001000110110111100000001 `
b10110010010100000100001001001101 a
b11001001010110010000010000111101 b
b10011011111110010110000010111000 c
b10011101101110010010100101000011 f
b0111 h
1Q
b10011011111110010110000010111000011100010010001101101111000000011100100101011001000001000011110110110010010100000100001001001101 R
b11001001010110010000010000111101 3
b10011101101110010010100101000011 S
b10110010010100000100001001001101 T
b10011011111110010110000010111000 U
b01110001001000110110111100000001 V
b11001001010110010000010000111101 W
b10100 X
b11100111110100111111101111001000 Y
b00000010010100000110110101000110 ]
#246
0Q
#251
b10011011111110010110000010111000 `
b11001001010110010000010000111101 a
b10011101101110010010100101000011 b
b10110010010100000100001001001101 c
b01111100001111111001000111010101 f
b1000 h
b01111100001111111001000111010101 O
1Q
b10011101101110010010100101000011 2
b10011011111110010110000010111000100111011011100100101001010000111100100101011001000001000011110110110010010100000100001001001101 R
b11001001010110010000010000111101 T
b10110010010100000100001001001101 U
b10011011111110010110000010111000 V
b10011101101110010010100101000011 W
b00101 X
b00100001111000011100110111100110 Y
b00000000000000000000000000110101 [
b10010110111101000011001101000100 ]
#256
0Q
#261
b10110010010100000100001001001101 `
b10011101101110010010100101000011 a
b01111100001111111001000111010101 b
b11001001010110010000010000111101 c
b11111101001001101111000101111001 d
b11111101001001101111000101111001 f
b1001 h
b01111100001111111001000111010101 1
1Q
b01111100001111111001000111010101100111011011100100101001010000111100100101011001000001000011110110110010010100000100001001001101 R
b10011101101110010010100101000011 T
b11001001010110010000010000111101 U
b10110010010100000100001001001101 V
b01111100001111111001000111010101 W
b01001 X
b11000011001101110000011111010110 Y
b11010010010000000111001110101111 ]
#266
0Q
#271
b11001001010110010000010000111101 `
b01111100001111111001000111010101 a
b11111101001001101111000101111001 b
b10011101101110010010100101000011 c
b00101110000011010110000001001110 f
b1010 h
1Q
b01111100001111111001000111010101100111011011100100101001010000111100100101011001000001000011110111111101001001101111000101111001 R
b11111101001001101111000101111001 4
b01111100001111111001000111010101 T
b10011101101110010010100101000011 U
b11001001010110010000010000111101 V
b11111101001001101111000101111001 W
b01110 X
b11110100110101010000110110000111 Y
b00000000000000000000000000000000 [
b10111011010101001100001110011001 ]
b00101110000011010110000001001110 ^
#276
0Q
#281
b10011101101110010010100101000011 `
b11111101001001101111000101111001 a
b00101110000011010110000001001110 b
b01111100001111111001000111010101 c
b00010111110101100110001001010111 f
b1011 h
1Q
b01111100001111111001000111010101100111011011100100101001010000110010111000001101011000000100111011111101001001101111000101111001 R
b00101110000011010110000001001110 3
b00010111110101100110001001010111 S
b11111101001001101111000101111001 T
b01111100001111111001000111010101 U
b10011101101110010010100101000011 V
b00101110000011010110000001001110 W
b10100 X
b01000101010110100001010011101101 Y
b10010000001000001001111010011100 ]
#286
0Q
#291
b01111100001111111001000111010101 `
b00101110000011010110000001001110 a
b00010111110101100110001001010111 b
b11111101001001101111000101111001 c
b10111110001100011100100001111110 f
b1100 h
b10111110001100011100100001111110 O
1Q
b00010111110101100110001001010111 2
b01111100001111111001000111010101000101111101011001100010010101110010111000001101011000000100111011111101001001101111000101111001 R
b00101110000011010110000001001110 T
b11111101001001101111000101111001 U
b01111100001111111001000111010101 V
b00010111110101100110001001010111 W
b00101 X
b10101001111000111110100100000101 Y
b00111101001100101101101100110001 ]
#296
0Q
#301
b11111101001001101111000101111001 `
b00010111110101100110001001010111 a
b10111110001100011100100001111110 b
b00101110000011010110000001001110 c
b10010001111000010110100011110001 d
b10010001111000010110100011110001 f
b1101 h
b10111110001100011100100001111110 1
1Q
b10111110001100011100100001111110000101111101011001100010010101110010111000001101011000000100111011111101001001101111000101111001 R
b00010111110101100110001001010111 T
b00101110000011010110000001001110 U
b11111101001001101111000101111001 V
b10111110001100011100100001111110 W
b01001 X
b11111100111011111010001111111000 Y
b00111001111010011101011111010000 ]
#306
0Q
#311
b00101110000011010110000001001110 `
b10111110001100011100100001111110 a
b10010001111000010110100011110001 b
b00010111110101100110001001010111 c
b00100100110010010111110011001000 f
b1110 h
1Q
b10111110001100011100100001111110000101111101011001100010010101110010111000001101011000000100111010010001111000010110100011110001 R
b10010001111000010110100011110001 4
b10111110001100011100100001111110 T
b00010111110101100110001001010111 U
b00101110000011010110000001001110 V
b10010001111000010110100011110001 W
b01110 X
b01100111011011110000001011011001 Y
b01001111010111100100101110100000 ]
b00100100110010010111110011001000 ^
#316
0Q
#321
b00010111110101100110001001010111 `
b10010001111000010110100011110001 a
b00100100110010010111110011001000 b
b10111110001100011100100001111110 c
b10011111011101100010100011101001 f
b1111 h
b00001000 N
1Q
b10111110001100011100100001111110000101111101011001100010010101110010010011001001011111001100100010010001111000010110100011110001 R
b00100100110010010111110011001000 3
b10011111011101100010100011101001 S
b10010001111000010110100011110001 T
b10111110001100011100100001111110 U
b00010111110101100110001001010111 V
b00100100110010010111110011001000 W
b10100 X
b10001101001010100100110010001010 Y
b11001010110000100001011110101010 ]
#326
0Q
#331
b10111110001100011100100001111110 `
b00100100110010010111110011001000 a
b10011111011101100010100011101001 b
b10010001111000010110100011110001 c
b00101000000110100001010101000111 f
b0000 h
b00101000000110100001010101000111 O
1Q
b10011111011101100010100011101001 2
b10111110001100011100100001111110100111110111011000101000111010010010010011001001011111001100100010010001111000010110100011110001 R
b00100100110010010111110011001000 T
b10010001111000010110100011110001 U
b10111110001100011100100001111110 V
b10011111011101100010100011101001 W
b00100 X
b11111111111110100011100101000010 Y
b10 Z
b00000000000000000000000000110101 [
b00001000 \
b11101000100010100011111011000101 ]
#336
0Q
